<?xml version="1.0" encoding="UTF-8"?>
<svg width="28px" height="28px" viewBox="0 0 28 28" version="1.1" xmlns="http://www.w3.org/2000/svg" xmlns:xlink="http://www.w3.org/1999/xlink">
    <title>28x28/chair</title>
    <g id="28x28/chair" stroke="none" stroke-width="1" fill="none" fill-rule="evenodd">
        <g id="chair" transform="translate(5.000000, 0.000000)" fill="#9847F2">
            <path d="M17.5,16.8984375 C17.5,15.5954531 16.4539784,14.5264219 15.136379,14.4432969 L15.136379,2.4609375 C15.136379,1.10397656 14.0020229,0 12.6077208,0 L5.39227916,0 C3.99797707,0 2.86362104,1.10397656 2.86362104,2.4609375 L2.86362104,14.4432969 C1.54602158,14.5264219 0.5,15.5954531 0.5,16.8984375 C0.5,17.5447344 0.757698359,18.1332266 1.17784895,18.5728047 L1.17784895,28 L2.86362104,28 L2.86362104,24.7440156 L15.136379,24.7440156 L15.136379,28 L16.822151,28 L16.822151,18.5728047 C17.2423016,18.1332266 17.5,17.5447344 17.5,16.8984375 Z M13.4506069,2.4609375 L13.4506069,14.4375 L11.7648348,14.4375 L11.7648348,1.640625 L12.6077208,1.640625 C13.0724882,1.640625 13.4506069,2.00861719 13.4506069,2.4609375 Z M7.92093729,14.4375 L7.92093729,1.640625 L10.0790627,1.640625 L10.0790627,14.4375 L7.92093729,14.4375 Z M4.54939312,2.4609375 C4.54939312,2.00861719 4.9275118,1.640625 5.39227916,1.640625 L6.23516521,1.640625 L6.23516521,14.4375 L4.54939312,14.4375 L4.54939312,2.4609375 Z M3.02865813,16.078125 L14.9712857,16.078125 C15.436053,16.078125 15.8141717,16.4461172 15.8141717,16.8984375 C15.8141717,17.3507578 15.436053,17.71875 14.9712857,17.71875 L3.02865813,17.71875 C2.56389076,17.71875 2.18577208,17.3507578 2.18577208,16.8984375 C2.18577208,16.4461172 2.56389076,16.078125 3.02865813,16.078125 Z M2.86362104,23.1033906 L2.86362104,19.3535781 C2.91824005,19.3570234 2.97319622,19.359375 3.02871432,19.359375 L14.9713419,19.359375 C15.02686,19.359375 15.0817599,19.3570234 15.1364352,19.3535781 L15.1364352,23.1033906 L2.86362104,23.1033906 Z" id="Shape"></path>
        </g>
    </g>
</svg>