<?xml version="1.0" encoding="UTF-8"?>
<svg width="28px" height="28px" viewBox="0 0 28 28" version="1.1" xmlns="http://www.w3.org/2000/svg" xmlns:xlink="http://www.w3.org/1999/xlink">
    <title>28x28/home outline</title>
    <g id="28x28/home-outline" stroke="none" stroke-width="1" fill="none" fill-rule="evenodd">
        <path d="M11.65625,25 C11.8841146,25 12.0712891,24.9181548 12.2177734,24.7544643 C12.3642578,24.5907738 12.4375,24.4107143 12.4375,24.2142857 L12.4375,24.2142857 L12.4375,17.9285714 L15.5625,17.9285714 L15.5625,24.2142857 C15.5625,24.4434524 15.6357422,24.6316964 15.7822266,24.7790179 C15.9287109,24.9263393 16.1158854,25 16.34375,25 L16.34375,25 L22.59375,25 C22.8216146,25 23.0087891,24.9181548 23.1552734,24.7544643 C23.3017578,24.5907738 23.375,24.4107143 23.375,24.2142857 L23.375,24.2142857 L23.375,12.28125 L25.3769531,13.9017857 C25.4420573,13.9672619 25.5234375,14 25.6210938,14 C25.7513021,14 25.8489583,13.9508929 25.9140625,13.8526786 L25.9140625,13.8526786 L26.4023438,13.2142857 C26.4674479,13.1488095 26.5,13.0669643 26.5,12.96875 C26.5,12.8705357 26.4511719,12.7723214 26.3535156,12.6741071 L26.3535156,12.6741071 L23.375,10.21875 L23.375,6.4375 C23.375,6.24107143 23.2773438,6.14285714 23.0820312,6.14285714 L23.0820312,6.14285714 L22.1054688,6.14285714 C21.9101562,6.14285714 21.8125,6.24107143 21.8125,6.4375 L21.8125,6.4375 L21.8125,8.94196429 L14.9765625,3.34375 C14.6835938,3.11458333 14.3580729,3 14,3 C13.6419271,3 13.3164062,3.11458333 13.0234375,3.34375 L13.0234375,3.34375 L1.64648438,12.6741071 C1.54882812,12.7723214 1.5,12.8705357 1.5,12.96875 C1.5,13.0669643 1.53255208,13.1488095 1.59765625,13.2142857 L1.59765625,13.2142857 L2.0859375,13.8526786 C2.15104167,13.9508929 2.24869792,14 2.37890625,14 C2.4765625,14 2.55794271,13.9672619 2.62304688,13.9017857 L2.62304688,13.9017857 L4.625,12.28125 L4.625,24.2142857 C4.625,24.4107143 4.69824219,24.5907738 4.84472656,24.7544643 C4.99121094,24.9181548 5.17838542,25 5.40625,25 L5.40625,25 L11.65625,25 Z M10.875,23.4285714 L6.1875,23.4285714 L6.1875,11.0044643 L14,4.57142857 L21.8125,11.0044643 L21.8125,23.4285714 L17.125,23.4285714 L17.125,17.1428571 C17.125,17.0446429 17.1005859,16.9464286 17.0517578,16.8482143 C17.0029297,16.75 16.9459635,16.6599702 16.8808594,16.578125 C16.8157552,16.4962798 16.734375,16.4389881 16.6367188,16.40625 C16.5390625,16.3735119 16.4414062,16.3571429 16.34375,16.3571429 L16.34375,16.3571429 L11.65625,16.3571429 C11.4283854,16.3571429 11.2412109,16.4308036 11.0947266,16.578125 C10.9482422,16.7254464 10.875,16.9136905 10.875,17.1428571 L10.875,17.1428571 L10.875,23.4285714 Z" id="home-outline" fill="#A498B3"></path>
    </g>
</svg>